<?xml version="1.0" encoding="utf-8"?>
<!-- Generator: Adobe Illustrator 24.2.0, SVG Export Plug-In . SVG Version: 6.00 Build 0)  -->
<svg version="1.1" id="Layer_1" xmlns="http://www.w3.org/2000/svg" xmlns:xlink="http://www.w3.org/1999/xlink" x="0px" y="0px"
	 viewBox="0 0 113 25.9" style="enable-background:new 0 0 113 25.9;" xml:space="preserve">
<style type="text/css">
	.st0{fill:#0A0AEF;}
	.st1{fill:#FFFFFF;}
	.st2{fill:url(#SVGID_1_);}
	.st3{fill:url(#SVGID_2_);}
	.st4{fill:url(#SVGID_3_);}
</style>
<path class="st0" d="M96.4,17.1h11.2c2,0,3.7,1.6,3.7,3.7l0,0c0,2-1.6,3.7-3.7,3.7H96.4c-2,0-3.7-1.6-3.7-3.7l0,0
	C92.7,18.7,94.4,17.1,96.4,17.1z"/>
<path class="st1" d="M98.9,21.3c0,0.6-0.4,0.9-1.3,0.9h-1.7v-3.3h1.6c0.8,0,1.2,0.4,1.2,0.9c0,0.3-0.2,0.6-0.4,0.7
	C98.6,20.6,98.9,21,98.9,21.3z M96.6,19.5v0.8h0.7c0.4,0,0.6-0.1,0.6-0.4s-0.2-0.4-0.6-0.4H96.6z M98.1,21.3c0-0.3-0.2-0.4-0.6-0.4
	h-0.9v0.8h0.9C97.9,21.7,98.1,21.6,98.1,21.3z"/>
<path class="st1" d="M102,21.6v0.6h-2.6v-3.3h2.5v0.7h-1.7v0.7h1.5v0.6h-1.5v0.7C100.2,21.6,102,21.6,102,21.6z"/>
<path class="st1" d="M103.3,19.6h-1V19h2.9v0.6h-1.1v2.7h-0.8V19.6z"/>
<path class="st1" d="M107.5,21.5H106l-0.3,0.7h-0.8l1.5-3.3h0.8l1.5,3.3h-0.8L107.5,21.5z M107.3,21l-0.5-1.3l-0.5,1.3H107.3z"/>
<g>
	<path class="st1" d="M31.5,12.8l0-5l-2.4,4.1h-1.2l-2.4-4v4.9h-2.5V3.3h2.2l3.3,5.5l3.3-5.5H34l0,9.5H31.5z"/>
	<path class="st1" d="M43.6,10.8v2.1h-7.6V3.3h7.5v2.1h-4.8V7h4.2v2h-4.2v1.7H43.6z"/>
	<path class="st1" d="M49.2,10.3h-1.5v2.5h-2.7V3.3h4.4c2.6,0,4.2,1.3,4.2,3.5c0,1.4-0.7,2.4-1.9,3l2.1,3H51L49.2,10.3z M49.3,5.4
		h-1.5v2.8h1.5c1.1,0,1.7-0.5,1.7-1.4C50.9,5.9,50.4,5.4,49.3,5.4z"/>
	<path class="st1" d="M55.2,3.3h2.7v9.5h-2.7V3.3z"/>
	<path class="st1" d="M27.1,21.9h-1.5v2.5h-2.7v-9.5h4.4c2.6,0,4.2,1.3,4.2,3.5c0,1.4-0.7,2.4-1.9,3l2.1,3h-2.9L27.1,21.9z M27.1,17
		h-1.5v2.8h1.5c1.1,0,1.7-0.5,1.7-1.4C28.8,17.5,28.3,17,27.1,17z"/>
	<path class="st1" d="M40.7,22.4v2.1H33v-9.5h7.5V17h-4.8v1.6h4.2v2h-4.2v1.7H40.7z"/>
	<path class="st1" d="M50.8,18.4c0,2.2-1.6,3.5-4.2,3.5h-1.7v2.5h-2.7v-9.5h4.4C49.1,14.9,50.8,16.3,50.8,18.4z M48,18.4
		c0-0.9-0.6-1.4-1.7-1.4h-1.5v2.8h1.5C47.5,19.8,48,19.3,48,18.4z"/>
	<path class="st1" d="M51.7,19.7c0-2.9,2.2-5,5.3-5s5.3,2.1,5.3,5s-2.2,5-5.3,5S51.7,22.5,51.7,19.7z M59.6,19.7
		c0-1.6-1.1-2.7-2.6-2.7s-2.6,1.1-2.6,2.7c0,1.6,1.1,2.7,2.6,2.7S59.6,21.3,59.6,19.7z"/>
	<path class="st1" d="M67.9,21.9h-1.5v2.5h-2.7v-9.5h4.4c2.6,0,4.2,1.3,4.2,3.5c0,1.4-0.7,2.4-1.9,3l2.1,3h-2.9L67.9,21.9z M67.9,17
		h-1.5v2.8h1.5c1.1,0,1.7-0.5,1.7-1.4C69.6,17.5,69,17,67.9,17z"/>
	<path class="st1" d="M75.7,17h-2.9v-2.1h8.5V17h-2.9v7.4h-2.7V17z"/>
	<path class="st1" d="M81.6,23.6l0.9-2c0.8,0.6,2,0.9,3.1,0.9c1.1,0,1.6-0.3,1.6-0.8c0-1.5-5.4-0.4-5.4-3.9c0-1.7,1.4-3.1,4.2-3.1
		c1.2,0,2.5,0.3,3.5,0.8l-0.8,2c-0.9-0.5-1.8-0.7-2.6-0.7c-1.1,0-1.5,0.4-1.5,0.9c0,1.5,5.4,0.4,5.4,3.9c0,1.7-1.4,3.1-4.2,3.1
		C84.1,24.6,82.5,24.2,81.6,23.6z"/>
</g>
<g>
	<path class="st1" d="M90.8,13h-0.7v-0.2h1.6V13h-0.7v1.7h-0.3V13z"/>
	<path class="st1" d="M93.9,14.7l0-1.4l-0.7,1.2H93l-0.7-1.2v1.4h-0.3v-2h0.2l0.8,1.4l0.8-1.4h0.2l0,2H93.9z"/>
</g>
<path class="st1" d="M1,12.9c0-2.7,0-5.3,0-8C1,2.4,2.4,1,5,1c2.2,0,4.4,0,6.6,0c1,0,1.8,0.2,2.6,0.9c1.5,1.5,3,3,4.5,4.5
	c0.7,0.7,1,1.5,1,2.5c0,4.1,0,8.1,0,12.2c0,2.6-1.4,3.9-4,3.9c-3.6,0-7.2,0-10.8,0c-2.4,0-3.8-1.4-3.8-3.8C1,18.5,1,15.7,1,12.9z
	 M2.7,13c0,2.6,0,5.2,0,7.8c0,1.9,0.7,2.5,2.5,2.6c3.3,0,6.7,0,10,0c2,0,2.6-0.7,2.7-2.6c0-2.8,0-5.6,0-8.4c-0.1-4,0.9-4.1-4-4
	c-1.2,0-1.8-0.3-1.6-1.6c0.1-0.8,0-1.7,0-2.5c0-1.1-0.5-1.6-1.7-1.5c-1.8,0.1-3.5,0-5.3,0c-2,0-2.6,0.7-2.6,2.7
	C2.7,7.9,2.7,10.5,2.7,13z"/>
<linearGradient id="SVGID_1_" gradientUnits="userSpaceOnUse" x1="5.1284" y1="12.0478" x2="15.5134" y2="12.0478">
	<stop  offset="0" style="stop-color:#F15A24"/>
	<stop  offset="0.9711" style="stop-color:#ED1C24"/>
</linearGradient>
<path class="st2" d="M10.3,11c1.4,0,2.8,0,4.2,0c0.7,0,1.1,0.1,1.1,1c0,0.7-0.1,1.1-0.9,1.1c-2.8,0-5.7,0-8.5,0
	c-0.9,0-0.9-0.5-0.9-1.2c0-0.7,0.2-0.9,0.9-0.9C7.5,11,8.9,11,10.3,11z"/>
<linearGradient id="SVGID_2_" gradientUnits="userSpaceOnUse" x1="5.1233" y1="15.9147" x2="15.5185" y2="15.9147">
	<stop  offset="0" style="stop-color:#F15A24"/>
	<stop  offset="0.9711" style="stop-color:#ED1C24"/>
</linearGradient>
<path class="st3" d="M10.3,14.9c1.4,0,2.8,0,4.2,0c0.8,0,1,0.3,1,1c0,0.7-0.2,1.1-1,1.1c-2.8,0-5.6,0-8.4,0c-0.8,0-1-0.3-1-1.1
	c0-0.7,0.2-1.1,1-1C7.5,14.9,8.9,14.9,10.3,14.9z"/>
<linearGradient id="SVGID_3_" gradientUnits="userSpaceOnUse" x1="5.1203" y1="19.7892" x2="15.5215" y2="19.7892">
	<stop  offset="0" style="stop-color:#F15A24"/>
	<stop  offset="0.9711" style="stop-color:#ED1C24"/>
</linearGradient>
<path class="st4" d="M10.3,20.8c-1.3,0-2.7,0-4,0c-0.8,0-1.1-0.3-1.1-1.1c0-0.8,0.4-1,1.1-1c2.7,0,5.5,0,8.2,0
	c0.7,0,1.1,0.1,1.1,0.9c0,0.8-0.2,1.2-1.1,1.2C13.1,20.8,11.7,20.8,10.3,20.8z"/>
</svg>
